1 10 20
100 200 125
201 210 89
900 1000 174
1 100000 351
100 1000 179
1 2 2
5 6 9
6 6 9
603714 795872 509
491532 943759 525
487506 605921 470
375100 490869 449
164986 250239 443
757562 956507 525
556845 605045 434
691081 960179 525
102865 239703 443
806945 894386 525
232249 299488 407
396048 423963 449
53719 954590 525
363251 938459 525
298318 632348 509
276850 295934 389
117013 830524 509
750811 956239 525
220084 455980 449
865564 995877 507
94076 695130 509
817182 887000 525
298578 502468 449
369848 745039 509
837110 975369 525
224599 360729 443
535838 768941 509
57680 752080 509
187582 524974 470
294943 648562 509
112096 432717 449
325388 470555 449
275967 395396 441
939359 990563 507
678787 841217 525
707495 802619 468
560852 730885 509
617552 945238 525
168200 833599 509
880436 926552 476
290768 418408 449
102174 544424 470
208136 854767 525
44243 324915 443
838461 992579 507
240542 946940 525
726544 755348 424
496331 535197 470
246281 532287 470
463899 861697 525
430566 753081 509
883363 885751 370
423493 618160 470
39676 667835 509
708572 887974 525
197011 796095 509
126671 307705 443
759110 925424 525
722035 805665 468
4320 182514 383
731315 900931 525
830710 876036 525
258294 448900 449
273880 781247 509
366243 416702 449
909741 981381 507
757336 793818 468
214570 879337 525
639459 980510 525
947413 985438 458
998773 999159 396
180495 723639 509
617143 947478 525
142556 478152 449
294483 615018 470
613642 721819 509
167750 246859 443
667972 870365 525
59267 589777 470
23382 900944 525
349631 404034 436
57790 777446 509
570926 991525 525
502466 846060 525
977238 983363 427
831046 837888 525
452877 971030 525
108446 616011 470
601207 779278 509
631863 698843 442
27595 740358 509
157627 853303 525
680143 736308 504
172787 544404 470
444012 779900 509
462830 960223 525
302744 791083 509
717604 848100 525
861774 901559 445
502016 610880 470
51716 878845 525
433658 543143 470
247113 927993 525
763000 842287 525
937364 982401 507
79631 402527 443
709883 841645 525
797302 845947 525
457916 522585 470
623291 716328 509
281525 347196 441
440876 899804 525
297827 758612 509
462086 773126 509
889516 959015 507
900026 955873 507
73032 432139 449
103852 580294 470
697333 790954 504
953455 969391 414
624871 957368 525
374602 939824 525
471025 754273 509
854568 996057 507
960111 969188 414
305333 983015 525
876713 977237 507
42491 575996 470
41221 779581 509
22837 766838 509
748059 764352 424
177385 676181 509
483197 771300 509
150218 790784 509
841326 934516 476
483425 963174 525
705939 908703 525
851864 917203 476
67762 971009 525
387464 882069 525
374891 646099 509
575456 702170 509
709847 827475 468
88230 593382 470
318633 827527 509
699657 854738 525
308831 795431 509
678373 881271 525
553567 629026 509
673089 939847 525
182079 217639 386
501914 628859 509
756971 960718 525
311464 781169 509
178459 315679 443
794897 981989 525
510223 527238 470
421140 841450 525
102804 386157 443
278327 295171 389
97679 615205 470
893915 952020 507
140244 615172 470
213882 832796 509
421918 689526 509
291118 739351 509
243255 678102 509
11403 227880 386
768915 996099 525
538877 618641 452
178127 796434 509
790258 833509 468
750816 961478 525
4397 588084 470
634451 992686 525
313150 976097 525
425567 573586 470
314055 588929 470
825337 893935 525
370383 789498 509
983926 990008 427
121799 524820 470
430006 953536 525
127212 622610 470
549405 558729 421
872789 880782 432
841396 926211 476
866820 911634 476
112042 810057 509
760889 964205 525
192316 714869 509
648049 658699 429
7937 170208 383
318983 526247 470
938910 963212 507
561867 965368 525
881917 942246 507
214180 590762 470
153865 374464 443
874396 902791 445
911791 943225 507
884407 954999 507
938323 958452 507
106371 845001 525
640877 860950 525
698517 823840 504
711802 950284 525
58044 815351 509
233620 328240 407
195923 671867 509
479308 722802 509
764674 923603 525
754286 774190 468
754582 979528 525
201550 291332 443
846843 850284 419
12461 528152 470
898330 993820 507
621881 664271 509
336685 523020 470
